sim/register_file.vcd
$date
	Sun Apr 13 15:38:31 2025
$end
$version
	Icarus Verilog
$end
$timescale
	1s
$end
$scope module register_file_tb $end
$var wire 32 ! rs2_data [31:0] $end
$var wire 32 " rs1_data [31:0] $end
$var reg 1 # clk $end
$var reg 5 $ rd_addr [4:0] $end
$var reg 32 % rd_data [31:0] $end
$var reg 1 & reg_write $end
$var reg 5 ' rs1_addr [4:0] $end
$var reg 5 ( rs2_addr [4:0] $end
$var reg 1 ) rst_n $end
$scope module rf_inst $end
$var wire 1 # clk $end
$var wire 5 * rd_addr [4:0] $end
$var wire 32 + rd_data [31:0] $end
$var wire 1 & reg_write $end
$var wire 5 , rs1_addr [4:0] $end
$var wire 5 - rs2_addr [4:0] $end
$var wire 1 ) rst_n $end
$var reg 32 . rs1_data [31:0] $end
$var reg 32 / rs2_data [31:0] $end
$var integer 32 0 i [31:0] $end
$upscope $end
$upscope $end
$enddefinitions $end
$comment Show the parameter values. $end
$dumpall
$end
#0
$dumpvars
b100000 0
b0 /
b0 .
b0 -
b0 ,
b0 +
b0 *
1)
b0 (
b0 '
0&
b0 %
b0 $
0#
b0 "
b0 !
$end
#5
1#
#10
b100000 0
0#
0)
#15
b100000 0
1#
#20
0#
1)
#25
1#
#30
0#
b11011110101011011011111011101111 %
b11011110101011011011111011101111 +
b1 $
b1 *
1&
#35
1#
#40
0#
b11001010111111101011101010111110 %
b11001010111111101011101010111110 +
b10 $
b10 *
#45
1#
#50
0#
b11111111111111111111111111111111 %
b11111111111111111111111111111111 +
b0 $
b0 *
#55
1#
#60
b11001010111111101011101010111110 !
b11001010111111101011101010111110 /
b11011110101011011011111011101111 "
b11011110101011011011111011101111 .
0#
b10 (
b10 -
b1 '
b1 ,
0&
#65
1#
#70
b11011110101011011011111011101111 !
b11011110101011011011111011101111 /
b0 "
b0 .
0#
b1 (
b1 -
b0 '
b0 ,
#75
1#
#80
0#
b11 '
b11 ,
b10010001101000101011001111000 %
b10010001101000101011001111000 +
b11 $
b11 *
1&
#85
b10010001101000101011001111000 "
b10010001101000101011001111000 .
1#
#90
b10010001101000101011001111000 !
b10010001101000101011001111000 /
b11011110101011011011111011101111 "
b11011110101011011011111011101111 .
0#
b11 (
b11 -
b1 '
b1 ,
0&
#95
1#
#100
b11001010111111101011101010111110 "
b11001010111111101011101010111110 .
0#
b10 '
b10 ,
